customer_id,customer_name,address,phone_no
1,Srinivasan Dhillon,8141 Rockwell Street Pickerington,+91-925-5555-256
2,Namita Grover,146 Rock Maple Street Fuquay Varina,+91-945-5559-315
3,Seema Saini,7483 Queen Ave. Ridgewood,+91-855-5660-710
4,Harpreet Amble,19 Lafayette Rd. Fort Lee,+91-935-5565-807
5,Binod Varty,201 Buckingham St. Lewis Center,+91-855-5914-438
6,Neerendra Kalita,7321 Talbot Road State College,+91-855-5863-659
7,Dinesh Jani,7493 Sugar Ave. Augusta,+91-855-5176-833
8,Munaf Bajwa,244 Lake View Rd. Chicago Heights,+91-755-5370-979
9,Vijay Venkatesh,549 North Pendergast Drive Grandville,+91-855-5367-819
10,Mehul Chanda,188 Arlington Dr. Muskego,+91-925-5583-378